%YAML 1.1
%TAG !u! tag:unity3d.com,2011:
--- !u!221 &22100000
AnimatorOverrideController:
  m_ObjectHideFlags: 0
  m_PrefabParentObject: {fileID: 0}
  m_PrefabInternal: {fileID: 0}
  m_Name: Dragon
  m_Controller: {fileID: 9100000, guid: dea0547240727bd4c97e01c4790a7940, type: 2}
  m_Clips:
  - m_OriginalClip: {fileID: 7400000, guid: 482c50e47d1418b4c9336fc88758bf97, type: 2}
    m_OverrideClip: {fileID: 7400000, guid: be71d2a8a24eb3547858eceaf0c88225, type: 2}
  - m_OriginalClip: {fileID: 7400000, guid: 18ad62e54d7aab74ea3994e8fdcd17b7, type: 2}
    m_OverrideClip: {fileID: 7400000, guid: 62123eba24936a9429cc39584c199fa5, type: 2}
  - m_OriginalClip: {fileID: 7400000, guid: 75471d445a238404e9a4d59823ba62b5, type: 2}
    m_OverrideClip: {fileID: 7400000, guid: be71d2a8a24eb3547858eceaf0c88225, type: 2}
